{
  "project_info": {
    "project_number": "29730712707",
    "project_id": "trieb-holz",
    "storage_bucket": "trieb-holz.appspot.com"
  },
  "client": [
    {
      "client_info": {
        "mobilesdk_app_id": "1:29730712707:android:47baa34f5653e8c4a4ffb6",
        "android_client_info": {
          "package_name": "com.triebholz"
        }
      },
      "oauth_client": [
        {
          "client_id": "29730712707-9ogt435pljbjisd919la6jhtte4mdaq2.apps.googleusercontent.com",
          "client_type": 3
        }
      ],
      "api_key": [
        {
          "current_key": "AIzaSyCZ-ihoxERbIV-mC_ev8ytbc4cMUf5jVow"
        }
      ],
      "services": {
        "appinvite_service": {
          "other_platform_oauth_client": [
            {
              "client_id": "29730712707-9ogt435pljbjisd919la6jhtte4mdaq2.apps.googleusercontent.com",
              "client_type": 3
            }
          ]
        }
      }
    }
  ],
  "configuration_version": "1"
}